<svg width="572" height="543" viewBox="0 0 572 543" fill="none" xmlns="http://www.w3.org/2000/svg">
<path d="M415.5 542.5L415.5 270.019C415.5 250.5 405 241.001 385 241.001L208 241" stroke="white" stroke-opacity="0.3" stroke-width="1.5"/>
<path d="M933 339C933 339 255.042 339 232.527 339C210.013 339 192 316.757 192 291.588V2" stroke="#F7F7F7" stroke-opacity="0.1" stroke-width="10"/>
<path d="M1.00015 -11L1 211.981C0.999998 231.5 11.5 240.999 31.5 240.999L208.5 241" stroke="white" stroke-opacity="0.3" stroke-width="1.5"/>
<circle class="circle-layer-1" cx="192" cy="248" r="5" fill="white"/>
<circle class="circle-layer-2" cx="300" cy="241" r="5" fill="white"/>
<style>
	@keyframes circle-1 {
		from {transform: translateY(0);}
		to {transform: translateY(-90px);}
	}
	@keyframes circle-2 {
		from {transform: translateX(0);}
		to {transform: translateX(90px);}
	}
	.circle-layer-1 {  animation: circle-1 3s cubic-bezier(.4,.2,.2,1) infinite alternate}
	.circle-layer-2 {  animation: circle-2 3s cubic-bezier(.4,.2,.2,1) infinite alternate}
</style>
</svg>
