<svg width="814" height="255" viewBox="0 0 814 255" fill="none" xmlns="http://www.w3.org/2000/svg">
<path d="M898 162L208 162" stroke="white" stroke-opacity="0.5" stroke-width="1.5"/>
<path d="M853 250C853 250 175.042 250 152.527 250C130.013 250 112 230.398 112 208.216V-47" stroke="#F7F7F7" stroke-opacity="0.3" stroke-width="10" style="mix-blend-mode:soft-light"/>
<path d="M1.00015 -90L1 132.981C0.999998 152.5 11.5 161.999 31.5 161.999L208.5 162" stroke="white" stroke-opacity="0.5" stroke-width="1.5"/>
<circle id="alice-circle-1" cx="112" cy="189" r="5" fill="white"/>
<circle id="alice-circle-2" cx="558" cy="162" r="5" fill="white"/>
<style>
	@keyframes circle-1 {
		from {transform: translateY(0);}
		to {transform: translateY(-90px);}
	}
	@keyframes circle-2 {
		from {transform: translateX(0);}
		to {transform: translateX(90px);}
	}
	#alice-circle-1 {  animation: circle-1 3s cubic-bezier(.4,.2,.2,1) infinite alternate}
	#alice-circle-2 {  animation: circle-2 3s cubic-bezier(.4,.2,.2,1) infinite alternate}
</style>
</svg>
