<svg width="337" height="121" viewBox="0 0 337 121" fill="none" xmlns="http://www.w3.org/2000/svg">
<path d="M340.5 115.5C340.5 115.5 68.0415 115.5 45.5273 115.5C23.0131 115.5 5 95.8975 5 73.7158L5 0" stroke="#F7F7F7" stroke-opacity="0.3" stroke-width="10" style="mix-blend-mode:soft-light"/>
<path d="M22 103C22 105.761 19.7614 108 17 108C14.2386 108 12 105.761 12 103C12 100.239 14.2386 98 17 98C19.7614 98 22 100.239 22 103Z" fill="white"/>
</svg>
