<svg width="373" height="266" viewBox="0 0 373 266" fill="none" xmlns="http://www.w3.org/2000/svg">
<path d="M267.986 165.476C273.682 179.978 277.392 191.632 278.169 194.308C278.6 195.085 284.037 205.012 295.772 207.343C301.554 208.465 306.041 205.444 308.284 200.782" stroke="white" stroke-width="2" stroke-miterlimit="10"/>
<path d="M308.284 200.782C299.913 209.501 293.355 199.229 291.716 189.647C291.371 187.575 290.421 180.324 289.127 170.138" stroke="white" stroke-width="2" stroke-miterlimit="10"/>
<path d="M285.503 141.478C280.757 103.669 275.148 57.4862 275.148 57.3135C268.331 2.32577 234.85 -2.59464 208.617 2.58474C207.668 2.75738 206.805 2.93003 205.856 3.10268C197.14 4.82914 188.08 8.28206 178.933 12.9435C176.948 13.8931 175.913 14.5836 175.913 14.5836C133.716 37.3729 90.5703 85.0232 73.312 104.619C51.9117 128.875 4.36512 193.445 1.25862 232.204C-1.84787 271.049 23.1767 271.653 68.4797 250.504C103.255 234.189 171.253 196.294 200.937 179.547C206.374 176.526 226.307 165.563 227.256 165.131C227.256 165.131 211.982 172.296 192.394 179.892C171.598 187.402 142 197.416 127.158 199.401C102.91 202.595 95.4027 187.834 98.768 172.641C102.133 157.448 123.102 127.753 147.523 110.316C171.943 92.8786 213.018 76.1319 236.317 105.309C245.809 117.135 254.524 134.227 261.514 150.283" stroke="white" stroke-width="2" stroke-miterlimit="10"/>
<path d="M370.844 171.433C369.378 164.613 364.804 154.6 356.002 146.571C353.5 144.241 350.825 142.342 348.064 140.702C347.891 140.615 347.718 140.529 347.546 140.443C347.459 140.356 347.373 140.356 347.287 140.27C337.104 134.573 323.212 131.724 304.745 135.522C296.116 137.076 290.334 139.407 290.334 139.407C255.559 149.938 225.357 165.649 210.601 174.022C210.601 174.022 210.601 174.022 210.515 174.109C209.997 174.367 209.566 174.626 209.048 174.885C205.51 176.871 196.967 181.791 193.947 183.431C193.947 183.431 194.292 183.259 194.896 183C193.429 183.69 192.394 184.295 192.135 184.467C192.135 184.467 232.347 167.462 261.858 165.476C281.792 164.872 296.72 171.433 305.522 182.137C314.669 193.272 308.111 209.674 295.857 207.257C286.02 205.271 280.584 198.106 278.858 195.344C278.858 195.344 278.081 193.963 278.254 194.222C281.619 202.854 296.634 264.92 323.557 261.985C323.729 261.985 323.988 261.899 324.161 261.813C329.856 261.208 333.912 258.705 333.912 258.705C333.912 258.705 337.622 257.151 343.49 251.886C350.566 246.016 356.175 238.592 360.144 232.29C360.317 232.031 360.489 231.772 360.662 231.513C363.337 227.542 365.667 222.967 367.565 218.047C373.002 203.976 375.073 186.884 370.844 171.433Z" stroke="white" stroke-width="2" stroke-miterlimit="10"/>
</svg>
