<svg xmlns="http://www.w3.org/2000/svg" xmlns:xlink="http://www.w3.org/1999/xlink" version="1.1" id="Capa_1" x="0px" y="0px" width="512px" height="512px" viewBox="0 0 22.354 22.354" style="enable-background:new 0 0 22.354 22.354;" xml:space="preserve">
	<rect y="8.61" width="22.354" height="5.133" data-original="#000000" class="active-path" data-old_color="#000000" fill="#B4B0B0"/>
</svg>
