<svg width="19" height="18" viewBox="0 0 19 18" fill="none" xmlns="http://www.w3.org/2000/svg">
<line x1="2.06066" y1="2" x2="17" y2="16.9393" stroke="#7a7a7a" stroke-width="1.5" stroke-linecap="round" stroke-linejoin="bevel"/>
<line x1="2" y1="16.9393" x2="16.9393" y2="2" stroke="#7a7a7a" stroke-width="1.5" stroke-linecap="round" stroke-linejoin="bevel"/>
</svg>
